<?xml version="1.0" encoding="utf-8"?>
<!-- Generator: Adobe Illustrator 22.0.0, SVG Export Plug-In . SVG Version: 6.00 Build 0)  -->
<svg version="1.1" id="Layer_1" xmlns="http://www.w3.org/2000/svg" xmlns:xlink="http://www.w3.org/1999/xlink" x="0px" y="0px"
	 viewBox="0 0 344.3 114.4" style="enable-background:new 0 0 344.3 114.4;" xml:space="preserve">
<style type="text/css">
	.logo-letter{fill:#010101;}
</style>
<path id="a" class="logo-letter" d="M306.3,76.7v-3.8l-29.9,2.8c-6.1,0.5-6.9,3.3-6.9,8.1v7.4c0,7.8,5.8,11.2,15.2,11.2
	C298.1,102.5,306.3,91.9,306.3,76.7 M344.3,99.7v12.7h-36L308,96.8h-0.7c-4.6,11.9-13.9,17.5-26.4,17.5c-8.3,0-15.4-2.7-20.2-7.6
	c-4.5-4.7-6.9-11-6.9-17.5c0-13.2,8.4-23.8,25.1-25.3l27.4-2.5v-6.8c-0.1-13.1-7.2-16.7-17.6-16.7s-17.4,4.5-17.4,15.2h-14.9
	c0-15.9,14.4-27.1,32.4-27.1c18.2,0,31.9,8.9,31.9,28.8v44.8L344.3,99.7L344.3,99.7z"/>
<rect id="_x2E_" x="221.6" class="logo-letter" width="15.5" height="15.5"/>
<rect id="i_1_" x="221.9" y="28.1" class="logo-letter" width="14.9" height="84.3"/>
<path id="d" class="logo-letter" d="M185.1,63.1c0-14.5-8.3-25.1-23.1-25.1c-12.2,0-21.5,7.8-21.5,19.2v26.1c0,11.4,9.3,19.2,21.5,19.2
	c14.9,0,23.1-10.6,23.1-25.1V63.1L185.1,63.1z M185.1,112.4V98.7c-5.3,10.1-14,15.7-26.6,15.7c-22.8,0-33.7-19.7-33.7-44.1
	s10.7-44.1,33.4-44.1c12.6,0,21.6,5.6,26.9,15.7V0H200v112.4H185.1z"/>
<rect id="_x2D_" x="92.1" y="2.7" class="logo-letter" width="43" height="12.9"/>
<rect id="i" x="92.4" y="28.1" class="logo-letter" width="14.9" height="84.3"/>
<polygon id="r" class="logo-letter" points="36.8,28.1 36.8,112.4 51.7,112.4 51.7,41 77.3,41 77.3,28.1 "/>
<rect id="I" class="logo-letter" width="15.7" height="112.4"/>
</svg>
